﻿{
  "$schema": "http://schemastore.org/schemas/json/webjob-publish-settings.json",
  "webJobName": "RemoveTempPages",
  "startTime": "2015-06-28T00:00:00-08:00",
  "endTime": null,
  "jobRecurrenceFrequency": "Hour",
  "interval": 2,
  "runMode": "Scheduled"
}